Data Science for Public Policy
…
b.Split the data into training and testing data

predictor: Center-Based Care for those who are school age based

childcare_costs

# A tibble: 34,567 × 61
   county_fips_code study_year unr_16 funr_16 munr_16 unr_20to64 funr_20to64
              <dbl>      <dbl>  <dbl>   <dbl>   <dbl>      <dbl>       <dbl>
 1             1001       2008   5.42    4.41    6.32        4.6         3.5
 2             1001       2009   5.93    5.72    6.11        4.8         4.6
 3             1001       2010   6.21    5.57    6.78        5.1         4.6
 4             1001       2011   7.55    8.13    7.03        6.2         6.3
 5             1001       2012   8.6     8.88    8.29        6.7         6.4
 6             1001       2013   9.39   10.3     8.56        7.3         7.6
 7             1001       2014   8.5     9.18    7.95        6.8         6.8
 8             1001       2015   7.64    8.45    6.91        5.9         6.1
 9             1001       2016   5.59    6.27    4.99        4.4         4.6
10             1001       2017   5.21    5.84    4.64        4.6         4.9
# ℹ 34,557 more rows
# ℹ 54 more variables: munr_20to64 <dbl>, flfpr_20to64 <dbl>,
#   flfpr_20to64_under6 <dbl>, flfpr_20to64_6to17 <dbl>,
#   flfpr_20to64_under6_6to17 <dbl>, mlfpr_20to64 <dbl>, pr_f <dbl>,
#   pr_p <dbl>, mhi_2018 <dbl>, me_2018 <dbl>, fme_2018 <dbl>, mme_2018 <dbl>,
#   total_pop <dbl>, one_race <dbl>, one_race_w <dbl>, one_race_b <dbl>,
#   one_race_i <dbl>, one_race_a <dbl>, one_race_h <dbl>, …

# select mcsa as my outcome
childcare_costs<- subset(childcare_costs, select = -c(mfccsa, mc_infant, mc_toddler, mc_preschool, mfcc_infant, mfcc_toddler, mfcc_preschool))
# missing value test
childcare_costs%>%
  group_by(county_fips_code)%>%
  summarise(missing_values = sum(is.na(mcsa)))

# A tibble: 3,144 × 2
   county_fips_code missing_values
              <dbl>          <int>
 1             1001              0
 2             1003              0
 3             1005              0
 4             1007              0
 5             1009              0
 6             1011              0
 7             1013              0
 8             1015              0
 9             1017              0
10             1019              0
# ℹ 3,134 more rows
…
set.seed(234)
folds<-vfold_cv(train, v = 10)

2&3 come up with models

create recipe

recipe<-recipe(mcsa~.,data = train)%>%
  step_dummy(all_nominal_predictors())%>%
  step_zv(all_predictors()) %>% 
  step_impute_knn(all_predictors())%>%
  step_scale(all_numeric_predictors())
bake(prep(recipe, training = train),new_data = train)

# A tibble: 17,693 × 54
   county_fips_code study_year unr_16 funr_16 munr_16 unr_20to64 funr_20to64
              <dbl>      <dbl>  <dbl>   <dbl>   <dbl>      <dbl>       <dbl>
 1           0.0644       652.   1.53   1.23     1.56       1.33       1.00 
 2           0.0644       653.   1.75   1.56     1.68       1.48       1.32 
 3           0.0644       654.   2.42   2.49     2.05       1.94       1.84 
 4           0.0644       654.   2.39   2.57     1.96       1.97       1.95 
 5           0.0644       655.   2.15   2.36     1.71       1.71       1.75 
 6           0.0644       655.   1.57   1.75     1.23       1.27       1.32 
 7           0.0644       656.   1.19   0.954    1.22       1.13       0.861
 8           0.0645       652.   1.19   1.06     1.14       1.10       1.00 
 9           0.0645       653.   1.56   1.52     1.40       1.39       1.41 
10           0.0645       653.   1.85   1.79     1.66       1.71       1.61 
# ℹ 17,683 more rows
# ℹ 47 more variables: munr_20to64 <dbl>, flfpr_20to64 <dbl>,
#   flfpr_20to64_under6 <dbl>, flfpr_20to64_6to17 <dbl>,
#   flfpr_20to64_under6_6to17 <dbl>, mlfpr_20to64 <dbl>, pr_f <dbl>,
#   pr_p <dbl>, mhi_2018 <dbl>, me_2018 <dbl>, fme_2018 <dbl>, mme_2018 <dbl>,
#   total_pop <dbl>, one_race <dbl>, one_race_w <dbl>, one_race_b <dbl>,
#   one_race_i <dbl>, one_race_a <dbl>, one_race_h <dbl>, …
…
new_recipe<-recipe(mcsa~total_pop+households+h_6to17_single_m+mhi_2018+h_under6_single_m,data = train)%>%
  step_dummy(all_nominal_predictors())%>%
  step_zv(all_predictors()) %>% 
  step_impute_knn(all_predictors())%>%
  step_scale(all_numeric_predictors())
bake(prep(recipe, training = train),new_data = train)

# A tibble: 17,693 × 54
   county_fips_code study_year unr_16 funr_16 munr_16 unr_20to64 funr_20to64
              <dbl>      <dbl>  <dbl>   <dbl>   <dbl>      <dbl>       <dbl>
 1           0.0644       652.   1.53   1.23     1.56       1.33       1.00 
 2           0.0644       653.   1.75   1.56     1.68       1.48       1.32 
 3           0.0644       654.   2.42   2.49     2.05       1.94       1.84 
 4           0.0644       654.   2.39   2.57     1.96       1.97       1.95 
 5           0.0644       655.   2.15   2.36     1.71       1.71       1.75 
 6           0.0644       655.   1.57   1.75     1.23       1.27       1.32 
 7           0.0644       656.   1.19   0.954    1.22       1.13       0.861
 8           0.0645       652.   1.19   1.06     1.14       1.10       1.00 
 9           0.0645       653.   1.56   1.52     1.40       1.39       1.41 
10           0.0645       653.   1.85   1.79     1.66       1.71       1.61 
# ℹ 17,683 more rows
# ℹ 47 more variables: munr_20to64 <dbl>, flfpr_20to64 <dbl>,
#   flfpr_20to64_under6 <dbl>, flfpr_20to64_6to17 <dbl>,
#   flfpr_20to64_under6_6to17 <dbl>, mlfpr_20to64 <dbl>, pr_f <dbl>,
#   pr_p <dbl>, mhi_2018 <dbl>, me_2018 <dbl>, fme_2018 <dbl>, mme_2018 <dbl>,
#   total_pop <dbl>, one_race <dbl>, one_race_w <dbl>, one_race_b <dbl>,
#   one_race_i <dbl>, one_race_a <dbl>, one_race_h <dbl>, …
…
